…
``` r
pacman::p_load(
        tidyverse,  # data management and visualization
        ggalluvial  # generate alluvial diagram
)
```

### Import data

``` r
data("majors")
majors %>% tibble()
```

    ## # A tibble: 80 × 3
    ##    student semester curriculum 
    ##      <int> <fct>    <chr>      
    ##  1       1 CURR1    Painting   
    ##  2       2 CURR1    Painting   
    ##  3       6 CURR1    Sculpure   
    ##  4       8 CURR1    Painting   
    ##  5       9 CURR1    Sculpure   
    ##  6      10 CURR1    Painting   
    ##  7      11 CURR1    Digital Art
    ##  8      12 CURR1    Sculpure   
    ##  9      14 CURR1    Ceramic    
    ## 10      15 CURR1    Photography
    ## # ℹ 70 more rows
…
