…
### Data

``` r
data_url <- "https://raw.githubusercontent.com/holtzy/data_to_viz/master/Example_dataset/13_AdjacencyUndirectedUnweighted.csv"
data_raw <- rio::import(data_url, header = TRUE)

data_raw %>% tibble()
```

    ## # A tibble: 118 × 109
    ##    from       `A Bateman` `A Besnard` `A Breil` `A Cenci` `A Criscuolo` `A Dassouli`
    ##    <chr>            <int>       <int>     <int>     <int>         <int>        <int>
    ##  1 A Armero            NA          NA         1        NA            NA           NA
    ##  2 A Bateman           NA          NA        NA        NA            NA           NA
    ##  3 A Besnard           NA          NA        NA        NA            NA           NA
    ##  4 A Breil             NA          NA        NA        NA            NA           NA
    ##  5 A Cenci             NA          NA        NA        NA            NA           NA
    ##  6 A Chifoll…          NA          NA        NA        NA            NA           NA
    ##  7 A Criscuo…          NA          NA        NA        NA            NA           NA
    ##  8 A Dassouli          NA          NA        NA        NA            NA           NA
    ##  9 A Dellagi           NA          NA        NA        NA            NA           NA
    ## 10 A Dereeper          NA          NA        NA        NA            NA           NA
    ## # ℹ 108 more rows
    ## # ℹ 102 more variables: `A Dellagi` <int>, `A Dereeper` <int>, `A Regnault` <int>,
    ## #   `AMA Chifolleau` <int>, `B Boussau` <int>, `B Martret` <int>, `B Noel` <int>,
    ## #   `B Roure` <int>, `B Vacherie` <int>, `C Abessolo` <int>, `C Burgarella` <int>,
    ## #   `C Douady` <int>, `C Fizames` <int>, `C Guilhaumon` <int>,
    ## #   `C Scornavacca` <int>, `CP Meyer` <int>, `CW Kilpatrick` <int>,
    ## #   `D Baurain` <int>, `D Durand` <int>, `D Expert` <int>, `D Pot` <int>, …

### Transform the adjacency matrix in a long format

``` r
(connect <- data_raw %>%
        pivot_longer(cols = -from,
                     names_to = "to",
                     values_to = "value") %>%
        drop_na(value))
```

    ## # A tibble: 405 × 3
    ##    from      to           value
    ##    <chr>     <chr>        <int>
    ##  1 A Armero  A Breil          1
    ##  2 A Armero  A Dereeper       1
    ##  3 A Armero  F De Lamotte     1
    ##  4 A Armero  FC Baurens       1
    ##  5 A Armero  G Droc           1
    ##  6 A Armero  S Bocs           1
    ##  7 A Bateman D Durand         1
    ##  8 A Bateman T Lengauer       1
    ##  9 A Bateman UK Hinxton       1
    ## 10 A Bateman Y Moreau         1
    ## # ℹ 395 more rows

### Number of connection per person

``` r
(coauth <- c(connect$from, connect$to) %>%
        as_tibble() %>%
        group_by(value) %>%
        summarise(n = n()) %>%
        rename(name = value))
```

    ## # A tibble: 133 × 2
    ##    name             n
    ##    <chr>        <int>
    ##  1 A Armero         6
    ##  2 A Bateman        5
    ##  3 A Besnard        6
    ##  4 A Breil          6
    ##  5 A Cenci          4
    ##  6 A Chifolleau     1
    ##  7 A Criscuolo      5
    ##  8 A Dassouli       4
    ##  9 A Dellagi        5
    ## 10 A Dereeper       6
    ## # ℹ 123 more rows
…
### Reorder dataset + make graph

``` r
(coauth <- coauth %>% 
        mutate(grp = community$membership) %>%
        arrange(grp) %>%
        mutate(name = factor(name, name)))
```

    ## # A tibble: 133 × 3
    ##    name               n   grp
    ##    <fct>          <int> <dbl>
    ##  1 A Chifolleau       1     1
    ##  2 A Criscuolo        5     1
    ##  3 AMA Chifolleau     5     1
    ##  4 C Scornavacca     32     1
    ##  5 E Douzery          4     1
    ##  6 F Delsuc          20     1
    ##  7 GJ Szöllősi        4     1
    ##  8 JP Doyon          11     1
    ##  9 KY Gorbunov        4     1
    ## 10 MK Tilak           4     1
    ## # ℹ 123 more rows

``` r
# keep only 10 first communities
(coauth_10com <- coauth %>% 
        filter(grp < 11))
```

    ## # A tibble: 98 × 3
    ##    name               n   grp
    ##    <fct>          <int> <dbl>
    ##  1 A Chifolleau       1     1
    ##  2 A Criscuolo        5     1
    ##  3 AMA Chifolleau     5     1
    ##  4 C Scornavacca     32     1
    ##  5 E Douzery          4     1
    ##  6 F Delsuc          20     1
    ##  7 GJ Szöllősi        4     1
    ##  8 JP Doyon          11     1
    ##  9 KY Gorbunov        4     1
    ## 10 MK Tilak           4     1
    ## # ℹ 88 more rows

``` r
# keep only people 10 first communities in edges
(connect_10com <- connect %>%
        filter(from %in% coauth_10com$name) %>%
        filter(to %in% coauth_10com$name))
```

    ## # A tibble: 329 × 3
    ##    from         to            value
    ##    <chr>        <chr>         <int>
    ##  1 A Besnard    G Poux            1
    ##  2 A Besnard    P Leroy           1
    ##  3 A Besnard    P Roumet          1
    ##  4 A Besnard    V Viader          1
    ##  5 A Cenci      C Guilhaumon      1
    ##  6 A Cenci      S Santoni         1
    ##  7 A Chifolleau V Berry           1
    ##  8 A Criscuolo  C Scornavacca     1
    ##  9 A Criscuolo  EJP Douzery       1
    ## 10 A Criscuolo  PH Fabre          1
    ## # ℹ 319 more rows
…
