…
``` r
(links <- rio::import(here("network_viz_kateto/data/Dataset1-Media-Example-EDGES.csv")) %>%
        tibble())
```

    ## # A tibble: 49 × 4
    ##    from  to    type      weight
    ##    <chr> <chr> <chr>      <int>
    ##  1 s01   s02   hyperlink     22
    ##  2 s01   s03   hyperlink     22
    ##  3 s01   s04   hyperlink     21
    ##  4 s01   s15   mention       20
    ##  5 s02   s01   hyperlink     23
    ##  6 s02   s03   hyperlink     21
    ##  7 s02   s09   hyperlink      1
    ##  8 s02   s10   hyperlink      5
    ##  9 s03   s01   hyperlink     21
    ## 10 s03   s04   hyperlink     22
    ## # ℹ 39 more rows

### Dataset2: Matrix

``` r
(nodes2 <- rio::import(here("network_viz_kateto/data/Dataset2-Media-User-Example-NODES.csv")) %>%
        tibble())
```

    ## # A tibble: 30 × 5
    ##    id    media   media.type media.name audience.size
    ##    <chr> <chr>        <int> <chr>              <int>
    ##  1 s01   NYT              1 Newspaper             20
    ##  2 s02   WaPo             1 Newspaper             25
    ##  3 s03   WSJ              1 Newspaper             30
    ##  4 s04   USAT             1 Newspaper             32
    ##  5 s05   LATimes          1 Newspaper             20
    ##  6 s06   CNN              2 TV                    56
    ##  7 s07   MSNBC            2 TV                    34
    ##  8 s08   FOX              2 TV                    60
    ##  9 s09   ABC              2 TV                    23
    ## 10 s10   BBC              2 TV                    34
    ## # ℹ 20 more rows
…
``` r
(vis.links <- links)
```

    ## # A tibble: 49 × 4
    ##    from  to    type      weight
    ##    <chr> <chr> <chr>      <int>
    ##  1 s01   s02   hyperlink     22
    ##  2 s01   s03   hyperlink     22
    ##  3 s01   s04   hyperlink     21
    ##  4 s01   s15   mention       20
    ##  5 s02   s01   hyperlink     23
    ##  6 s02   s03   hyperlink     21
    ##  7 s02   s09   hyperlink      1
    ##  8 s02   s10   hyperlink      5
    ##  9 s03   s01   hyperlink     21
    ## 10 s03   s04   hyperlink     22
    ## # ℹ 39 more rows
…
``` r
# customize arrow edges
(vis.links <- vis.links %>%
        mutate(width = 1 + links$weight/8, # line width
               color = "gray", # line color
               arrows = "middle", # arrow: `from`, `to`, `middle`
               smooth = FALSE, # edges: curved?
               shadow = FALSE))
```

    ## # A tibble: 49 × 9
    ##    from  to    type      weight width color arrows smooth shadow
    ##    <chr> <chr> <chr>      <int> <dbl> <chr> <chr>  <lgl>  <lgl> 
    ##  1 s01   s02   hyperlink     22  3.75 gray  middle FALSE  FALSE 
    ##  2 s01   s03   hyperlink     22  3.75 gray  middle FALSE  FALSE 
    ##  3 s01   s04   hyperlink     21  3.62 gray  middle FALSE  FALSE 
    ##  4 s01   s15   mention       20  3.5  gray  middle FALSE  FALSE 
    ##  5 s02   s01   hyperlink     23  3.88 gray  middle FALSE  FALSE 
    ##  6 s02   s03   hyperlink     21  3.62 gray  middle FALSE  FALSE 
    ##  7 s02   s09   hyperlink      1  1.12 gray  middle FALSE  FALSE 
    ##  8 s02   s10   hyperlink      5  1.62 gray  middle FALSE  FALSE 
    ##  9 s03   s01   hyperlink     21  3.62 gray  middle FALSE  FALSE 
    ## 10 s03   s04   hyperlink     22  3.75 gray  middle FALSE  FALSE 
    ## # ℹ 39 more rows
…
